<?xml version="1.0" standalone="no"?>
<!DOCTYPE svg PUBLIC "-//W3C//DTD SVG 20010904//EN"
 "http://www.w3.org/TR/2001/REC-SVG-20010904/DTD/svg10.dtd">
<svg version="1.0" xmlns="http://www.w3.org/2000/svg"
 width="200.000000pt" height="256.000000pt" viewBox="0 0 200.000000 256.000000"
 preserveAspectRatio="xMidYMid meet">
<metadata>
Created by potrace 1.15, written by Peter Selinger 2001-2017
</metadata>
<g transform="translate(0.000000,256.000000) scale(0.100000,-0.100000)"
fill="#000000" stroke="none">
<path d="M1000 2330 c-8 -5 -11 -10 -7 -10 9 0 -18 -30 -28 -30 -3 0 -1 9 5
19 9 18 6 18 -47 -5 -31 -14 -68 -34 -81 -45 -19 -14 -28 -16 -38 -8 -16 13
-51 -8 -68 -43 -6 -13 -21 -27 -33 -33 -12 -5 -27 -18 -33 -30 -9 -17 -10 -16
-5 10 4 25 4 27 -6 12 -6 -11 -9 -30 -6 -43 2 -13 0 -24 -4 -24 -5 0 -9 7 -9
16 0 8 -5 12 -11 8 -6 -3 -15 0 -20 7 -7 12 -12 11 -26 -5 -17 -17 -17 -18 5
-11 16 5 22 2 22 -10 0 -26 -20 -57 -35 -52 -9 4 -11 -1 -8 -14 3 -11 0 -19
-8 -19 -7 0 -10 -3 -6 -6 8 -8 -20 -36 -64 -62 -69 -42 -73 -56 -72 -252 1
-126 5 -188 16 -222 8 -27 11 -48 7 -48 -5 0 -2 -12 6 -27 16 -33 19 -94 3
-110 -7 -7 -6 -21 5 -47 8 -20 17 -36 19 -36 3 0 2 37 0 83 -3 45 0 152 7 237
6 85 13 179 16 207 2 29 12 68 21 86 52 99 73 134 90 149 50 45 199 68 313 48
36 -6 97 -15 135 -19 77 -8 144 -33 146 -53 6 -97 4 -115 -14 -110 -17 4 -18
2 -8 -16 20 -37 80 -97 99 -98 22 -1 75 -35 67 -42 -3 -3 -53 -6 -110 -7 -68
0 -109 -5 -117 -13 -7 -7 -22 -12 -34 -12 -12 0 -36 -8 -52 -17 -29 -16 -32
-16 -49 -1 -18 16 -19 16 -31 -2 -15 -24 -35 -26 -52 -5 -19 22 -158 21 -199
-2 -45 -26 -45 -39 2 -62 29 -14 36 -20 22 -21 -20 -1 -20 -1 0 -9 17 -7 14
-11 -25 -28 -25 -11 -54 -30 -65 -43 -18 -21 -18 -22 -1 -13 12 7 29 6 55 -3
20 -7 47 -14 61 -14 23 -1 21 -3 -13 -21 -22 -11 -36 -23 -33 -26 3 -3 35 -2
71 2 59 6 68 10 93 41 15 19 32 34 37 34 6 0 11 10 12 22 1 12 13 33 27 46
l25 25 34 -26 c30 -23 36 -36 47 -94 13 -66 32 -100 97 -174 38 -41 41 -108 5
-76 -15 13 -62 16 -127 8 -6 0 -12 -13 -13 -28 -1 -15 -11 -36 -22 -48 -15
-16 -18 -27 -11 -50 7 -26 12 -30 41 -28 23 1 29 -1 19 -8 -8 -5 -31 -9 -52
-9 -41 0 -134 -27 -143 -41 -3 -5 -21 -9 -40 -9 -22 0 -37 -6 -40 -15 -4 -8
-10 -15 -15 -15 -17 0 -9 43 21 105 17 35 33 78 36 97 4 18 13 46 21 61 8 16
13 30 11 32 -7 7 -98 -125 -98 -142 0 -10 -6 -29 -13 -43 -19 -36 -26 -90 -18
-130 8 -39 28 -51 33 -19 2 18 15 25 71 38 70 18 86 18 199 0 68 -11 102 -29
54 -29 -13 0 -31 -6 -38 -13 -7 -8 -25 -17 -40 -20 -15 -4 -32 -16 -38 -26 -8
-16 -3 -25 31 -55 l42 -35 -38 -53 c-21 -29 -49 -61 -62 -72 l-24 -18 33 -29
33 -29 -22 -19 c-12 -10 -19 -21 -16 -25 3 -3 -2 -8 -11 -12 -9 -3 -14 -10
-11 -14 3 -5 -4 -12 -15 -15 -26 -8 -100 37 -100 61 0 5 5 3 12 -4 7 -7 19
-12 28 -12 12 0 13 2 1 9 -8 5 -10 14 -6 22 6 9 4 11 -8 6 -23 -9 -151 120
-167 169 -19 59 -30 64 -32 14 -4 -104 -3 -158 4 -154 4 3 6 -10 6 -28 -1 -18
2 -52 6 -75 7 -41 7 -43 -18 -43 -14 0 -32 -9 -41 -22 -15 -22 -16 -21 -11 27
10 96 17 245 11 245 -14 0 -27 -63 -31 -152 -5 -102 15 -252 42 -316 8 -19 14
-43 14 -54 0 -10 5 -16 10 -13 6 3 10 -3 10 -14 0 -12 7 -21 15 -21 9 0 19 -8
23 -18 9 -22 34 -28 25 -5 -4 11 -3 14 5 9 15 -9 15 -4 1 28 -7 14 -15 23 -19
21 -3 -2 -6 11 -5 30 1 36 19 65 32 50 5 -4 3 -10 -4 -12 -7 -2 -9 -11 -6 -20
5 -11 3 -14 -6 -8 -10 6 -11 3 -1 -14 9 -17 14 -20 25 -11 7 6 12 20 10 31 -4
19 -3 19 25 -1 28 -20 55 -51 33 -37 -6 4 -14 0 -17 -9 -4 -9 -2 -13 5 -8 7 4
10 1 7 -7 -3 -8 -1 -23 5 -34 9 -17 8 -18 -4 -8 -11 9 -14 6 -16 -14 -1 -18 2
-22 7 -12 5 7 12 10 15 7 4 -4 -3 -15 -14 -25 -23 -19 -27 -33 -10 -33 5 0 7
5 4 10 -3 6 -1 10 4 10 18 0 12 -28 -6 -32 -10 -2 14 -4 52 -5 39 0 62 2 52 4
-9 3 -15 9 -12 14 4 5 1 9 -6 9 -8 0 -8 4 -1 13 8 10 5 25 -13 60 -22 45 -22
47 -4 47 27 0 123 -66 139 -95 7 -14 17 -25 21 -25 5 0 6 -7 3 -15 -10 -25 61
-20 88 7 l21 21 -6 -24 c-6 -22 -5 -22 18 5 14 16 25 24 25 18 0 -16 50 11 51
28 0 9 4 6 9 -7 7 -18 17 -22 45 -21 25 1 35 6 35 17 0 14 2 14 10 1 7 -11 10
-11 10 -2 0 7 5 10 10 7 6 -4 10 6 10 22 0 22 2 25 10 13 5 -8 10 -10 10 -3 0
6 17 15 38 20 20 5 36 15 34 21 -1 7 2 12 8 12 5 0 10 8 10 18 0 13 2 14 9 4
9 -15 21 29 21 82 0 17 5 38 10 46 7 10 8 -1 4 -37 -3 -32 -1 -53 4 -53 11 0
4 -39 -11 -58 -6 -8 -5 -12 4 -12 8 0 5 -6 -7 -15 -19 -13 -21 -23 -15 -79 1
-5 7 -3 15 3 12 10 15 7 18 -16 2 -20 9 -29 26 -31 12 -2 22 1 22 7 0 6 -7 7
-17 4 -11 -4 -14 -3 -9 5 4 7 3 12 -2 12 -5 0 -9 26 -9 58 0 35 2 44 4 22 3
-19 10 -38 16 -42 9 -6 8 -11 -3 -18 -9 -6 -10 -10 -3 -10 18 0 26 19 14 34
-9 10 -6 12 12 9 29 -6 47 29 47 90 0 31 3 38 10 27 7 -11 10 -7 10 17 0 17 6
34 13 36 9 4 9 6 0 6 -7 1 -10 8 -7 16 3 8 2 19 -2 26 -4 7 -9 35 -10 63 -2
37 -9 56 -24 68 -12 10 -16 18 -9 20 14 5 -52 148 -77 169 -15 12 -15 6 -10
-66 12 -154 17 -185 29 -185 8 0 11 -16 9 -50 -2 -27 -9 -50 -14 -50 -6 0 -8
9 -5 20 3 11 1 23 -4 26 -5 3 -9 11 -9 17 0 7 4 6 10 -3 9 -13 10 -13 10 0 0
21 -37 80 -51 80 -7 0 -9 30 -7 89 2 49 7 87 12 84 4 -3 6 3 3 13 -3 11 -8 37
-12 59 -3 22 -13 63 -22 92 -15 50 -15 52 8 85 13 18 16 27 8 21 -9 -7 -20 -9
-24 -5 -5 4 -5 1 -1 -5 4 -7 3 -13 -2 -13 -5 0 -10 40 -10 90 0 129 -8 163
-42 189 -16 11 -33 21 -38 21 -23 0 -127 166 -134 215 -3 17 4 21 52 25 55 5
120 28 120 42 0 5 -4 8 -10 8 -5 0 -10 5 -10 11 0 8 17 10 55 5 71 -8 73 8 8
69 -45 41 -43 63 1 30 11 -8 22 -15 25 -15 8 0 14 97 9 135 -2 14 4 20 24 21
21 2 29 -4 41 -29 19 -39 41 -286 35 -385 -4 -78 -1 -80 26 -12 10 25 24 60
32 78 21 49 21 48 -33 522 -3 25 -12 53 -20 62 -8 9 -12 21 -9 26 3 6 -1 13
-10 16 -9 3 -14 12 -11 20 3 8 -4 24 -15 35 -19 22 -18 58 2 46 15 -9 12 6 -4
24 -121 134 -201 201 -238 201 -8 0 -40 14 -73 31 -36 18 -61 26 -63 20 -2 -6
-12 -11 -22 -11 -11 0 -31 -5 -45 -12 -14 -6 -28 -8 -33 -3 -4 4 -1 10 6 12
13 5 17 23 5 23 -5 0 -15 -5 -23 -10z"/>
<path d="M487 570 c-10 -12 -29 -67 -43 -123 -14 -56 -28 -109 -31 -117 -8
-20 -32 -116 -40 -157 -3 -18 -9 -33 -14 -33 -5 0 -9 -20 -9 -45 0 -25 -4 -45
-10 -45 -5 0 -10 -9 -10 -19 0 -11 -6 -21 -12 -24 -7 -2 13 -5 45 -4 33 0 55
2 50 6 -12 9 -15 31 -4 31 5 0 12 7 15 16 3 8 2 12 -4 9 -6 -3 -10 -1 -10 4 0
6 5 11 10 11 6 0 9 3 9 8 -1 4 -1 25 1 47 1 32 3 36 10 20 6 -14 9 -15 10 -5
1 8 4 24 6 35 3 11 6 30 7 42 1 13 4 23 7 23 3 0 5 12 6 27 4 118 17 250 29
291 9 27 4 28 -18 2z"/>
<path d="M1638 516 c-13 -18 -13 -23 -3 -23 8 0 12 4 9 8 -2 4 0 10 5 13 5 4
12 -7 16 -24 4 -16 10 -30 14 -30 8 0 6 -59 -3 -67 -3 -4 -6 1 -6 10 0 21 -46
33 -65 17 -8 -7 -12 -17 -8 -23 4 -6 10 -3 15 9 6 15 7 13 3 -8 -3 -14 -8 -34
-12 -44 -4 -12 -3 -15 5 -10 7 4 12 4 12 -1 0 -29 23 -146 37 -188 9 -27 16
-52 15 -55 0 -3 4 -10 9 -16 5 -6 7 -19 3 -28 -3 -9 -1 -16 5 -16 6 0 11 -6
11 -14 0 -17 17 -24 47 -18 34 6 28 20 -7 17 -16 -1 -30 1 -30 6 0 9 12 12 40
10 8 0 5 4 -7 11 -13 6 -23 15 -23 20 0 5 9 4 21 -3 19 -10 20 -9 14 13 -4 12
-15 32 -24 42 -15 18 -15 19 6 14 13 -4 26 -1 30 4 3 6 2 9 -3 6 -13 -8 -54 9
-54 22 0 7 6 8 19 0 25 -13 41 -13 41 0 0 6 -9 10 -19 10 -11 0 -23 5 -26 10
-4 6 6 10 22 10 24 1 25 2 10 11 -9 5 -22 7 -27 4 -5 -3 -7 1 -4 9 3 8 12 12
20 9 8 -3 14 0 14 6 0 6 -5 11 -11 11 -5 0 -8 4 -5 9 4 5 2 21 -4 35 -10 27
-6 30 32 27 12 -2 15 4 11 19 -3 11 -9 22 -13 25 -5 3 -6 14 -3 25 6 21 -6 27
-22 11 -6 -6 -18 -4 -30 6 -15 12 -16 14 -3 10 12 -4 15 -2 11 9 -3 7 0 14 6
14 6 0 11 -7 11 -15 0 -9 6 -12 16 -8 13 5 10 11 -13 36 l-28 30 26 -17 c26
-16 27 -16 25 1 -1 15 -85 72 -106 72 -3 0 -13 -10 -22 -23z"/>
</g>
</svg>
